{
  "results": [{
    "id": "Maison-daccueil-pour-enfants",
    "title": "L’exposition du photographe de guerre Zakaria Abdelkafi a été inaugurée hier, à la galerie Pictura",
    "content": "Les photos, prises jusqu'en 2015 à Alep (Syrie), parlent d'elles-mêmes : sauvetage d'un enfant, bus dressés en hauteur pour servir d'abri contre les snipers, enfants jouant dans une voiture abandonnée…\n\nJuste avant le vernissage, un rassemblement était organisé place Planchat pour commémorer les sept ans du début de la guerre en Syrie. Une cinquantaine de personnes y ont pris part. L'occasion pour l'association Medina de « sensibiliser le public à la situation en Syrie et de faire découvrir la culture syrienne ».\n\nSurtout, Medina met l'accent sur son hôpital mère-enfant, créé il y a trois ans à l'ouest d'Alep. 250 accouchements par mois y sont réalisés et 35 salariés y travaillent. Franck Carrey, le président de l'association, tient le lieu secret : « Les structures de santé sont prises pour cibles systématiquement par le régime, déplore-t-il. Si vous soignez, vous êtes recherché » Mais il ne baisse pas les bras : « Nous refusons d'être des témoins impassibles. »\n\nPratique. L'exposition Je suis de là-bas, je suis d'Alep est visible à la galerie Pictura, 15 rue Littré, à Bourges, jusqu'au samedi 31 mars. À noter : samedi 31 mars, une dégustation de spécialités syriennes sera proposée sur inscription à la suite du spectacle au théâtre Saint-Bonnet. Réservation obligatoire au 02.48.24.54.44 ou par courriel : communication@solidarite-medina.org.",
    "image": "https://www.leberry.fr/photoSRC/VVNUJ1paUTgIBhVOCRAHHQ4zRSkXaldfVR5dW1sXVA49/3674332.jpeg",
    "meta": {
      "description": "Le vernissage de l'exposition photo du reporter de guerre Zakaria Abdelkafi a lancé, hier soir, à la galerie Pictura de Bourges, la Quinzaine syrienne de l'association Medina.",
      "published": "2019-05-19T15:49:37.000Z",
      "author": "Association Medina"
    }
  }]
}
